<?xml version="1.0" encoding="utf-8"?>
<!-- Generator: Adobe Illustrator 21.1.0, SVG Export Plug-In . SVG Version: 6.00 Build 0)  -->
<svg version="1.1" id="Capa_1" xmlns="http://www.w3.org/2000/svg" xmlns:xlink="http://www.w3.org/1999/xlink" x="0px" y="0px"
	 viewBox="0 0 62 66.4" style="enable-background:new 0 0 62 66.4;" xml:space="preserve">
<style type="text/css">
	.st0{fill:#1D1D26;}
	.st1{fill:#7CCF91;}
	.st2{opacity:0.25;}
	.st3{fill:none;stroke:#7CCF91;stroke-width:5;stroke-miterlimit:10;}
	.st4{fill:#55B085;}
	.st5{opacity:0.5;}
</style>
<g>
	<polygon class="st1" points="57.6,8.9 57.6,13.3 57.6,17.7 57.6,20.6 53.1,20.6 48.7,20.6 44.3,20.6 39.9,20.6 35.4,20.6 31,20.6 
		26.6,20.6 22.1,20.6 17.7,20.6 13.3,20.6 8.9,20.6 4.4,20.6 4.4,17.7 4.4,13.3 4.4,8.9 0,8.9 0,13.3 0,17.7 0,22.1 0,26.6 0,31 
		0,35.4 0,39.9 0,44.3 0,48.7 0,53.1 0,57.6 0,62 4.4,62 4.4,57.6 4.4,53.1 4.4,48.7 4.4,44.3 4.4,39.9 4.4,35.4 4.4,31 4.4,26.6 
		4.4,25.1 8.9,25.1 13.3,25.1 17.7,25.1 22.1,25.1 26.6,25.1 31,25.1 35.4,25.1 39.9,25.1 44.3,25.1 48.7,25.1 53.1,25.1 57.6,25.1 
		57.6,26.6 57.6,31 57.6,35.4 57.6,39.9 57.6,44.3 57.6,48.7 57.6,53.1 57.6,57.6 57.6,62 62,62 62,57.6 62,53.1 62,48.7 62,44.3 
		62,39.9 62,35.4 62,31 62,26.6 62,22.1 62,17.7 62,13.3 62,8.9 	"/>
	<polygon class="st1" points="13.3,8.9 17.7,8.9 17.7,13.3 22.1,13.3 22.1,8.9 26.6,8.9 31,8.9 35.4,8.9 39.9,8.9 39.9,13.3 
		44.3,13.3 44.3,8.9 48.7,8.9 53.1,8.9 57.6,8.9 57.6,4.4 53.1,4.4 48.7,4.4 44.3,4.4 44.3,0 39.9,0 39.9,4.4 35.4,4.4 31,4.4 
		26.6,4.4 22.1,4.4 22.1,0 17.7,0 17.7,4.4 13.3,4.4 8.9,4.4 4.4,4.4 4.4,8.9 8.9,8.9 	"/>
	<polygon class="st1" points="48.7,62 44.3,62 39.9,62 35.4,62 31,62 26.6,62 22.1,62 17.7,62 13.3,62 8.9,62 4.4,62 4.4,66.4 
		8.9,66.4 13.3,66.4 17.7,66.4 22.1,66.4 26.6,66.4 31,66.4 35.4,66.4 39.9,66.4 44.3,66.4 48.7,66.4 53.1,66.4 57.6,66.4 57.6,62 
		53.1,62 	"/>
</g>
</svg>
