<?xml version="1.0" encoding="utf-8"?>
<!-- Generator: Adobe Illustrator 21.1.0, SVG Export Plug-In . SVG Version: 6.00 Build 0)  -->
<svg version="1.1" id="Capa_1" xmlns="http://www.w3.org/2000/svg" xmlns:xlink="http://www.w3.org/1999/xlink" x="0px" y="0px"
	 viewBox="0 0 62.5 75.1" style="enable-background:new 0 0 62.5 75.1;" xml:space="preserve">
<style type="text/css">
	.st0{fill:#1D1D26;}
	.st1{fill:#7CCF91;}
	.st2{opacity:0.25;}
	.st3{fill:none;stroke:#7CCF91;stroke-width:5;stroke-miterlimit:10;}
	.st4{opacity:0.5;}
</style>
<g>
	<rect x="49.2" y="8.9" class="st1" width="4.4" height="4.4"/>
	<polygon class="st1" points="19.3,11.7 14.8,11.7 10.4,11.7 10.4,16.1 14.8,16.1 19.3,16.1 23.7,16.1 28.1,16.1 28.1,11.7 
		23.7,11.7 	"/>
	<polygon class="st1" points="10.4,29.8 14.8,29.8 19.3,29.8 23.7,29.8 28.1,29.8 28.1,25.3 23.7,25.3 19.3,25.3 14.8,25.3 
		10.4,25.3 	"/>
	<rect x="31.7" y="11.7" class="st1" width="4.4" height="4.4"/>
	<polygon class="st1" points="10.4,23 14.8,23 19.3,23 23.7,23 23.7,18.5 19.3,18.5 14.8,18.5 10.4,18.5 	"/>
	<polygon class="st1" points="31.2,25.3 31.2,29.8 35.7,29.8 40.1,29.8 44.5,29.8 44.5,25.3 40.1,25.3 35.7,25.3 	"/>
	<polygon class="st1" points="10.4,36.6 14.8,36.6 19.3,36.6 23.7,36.6 28.1,36.6 32.6,36.6 37,36.6 37,32.2 32.6,32.2 28.1,32.2 
		23.7,32.2 19.3,32.2 14.8,32.2 10.4,32.2 	"/>
	<polygon class="st1" points="10.4,43.4 14.8,43.4 19.3,43.4 23.7,43.4 23.7,39 19.3,39 14.8,39 10.4,39 	"/>
	<polygon class="st1" points="41.4,50.2 45.8,50.2 45.8,45.8 41.4,45.8 37,45.8 32.6,45.8 28.1,45.8 23.7,45.8 19.3,45.8 14.8,45.8 
		10.4,45.8 10.4,50.2 14.8,50.2 19.3,50.2 23.7,50.2 28.1,50.2 32.6,50.2 37,50.2 	"/>
	<polygon class="st1" points="23.7,52.6 19.3,52.6 14.8,52.6 10.4,52.6 10.4,57 14.8,57 19.3,57 23.7,57 	"/>
	<polygon class="st1" points="26.3,52.6 26.3,57 30.8,57 35.2,57 35.2,52.6 30.8,52.6 	"/>
	<polygon class="st1" points="14.8,59.4 10.4,59.4 10.4,63.8 14.8,63.8 19.3,63.8 23.7,63.8 23.7,59.4 19.3,59.4 	"/>
	<rect x="46.7" y="59.4" class="st1" width="4.4" height="4.4"/>
	<polygon class="st1" points="27.3,18.5 27.3,23 31.7,23 36.1,23 36.1,18.5 31.7,18.5 	"/>
	<polygon class="st1" points="48.4,32.2 44,32.2 39.5,32.2 39.5,36.6 44,36.6 48.4,36.6 	"/>
	<polygon class="st1" points="44.8,4.4 40.4,4.4 40.4,8.9 40.4,13.3 40.4,17.7 40.4,22.1 44.8,22.1 49.2,22.1 53.6,22.1 58.1,22.1 
		58.1,17.7 58.1,13.3 53.6,13.3 53.6,17.7 49.2,17.7 44.8,17.7 44.8,13.3 44.8,8.9 49.2,8.9 49.2,4.4 	"/>
	<polygon class="st1" points="58.1,17.7 58.1,70.6 4.4,70.6 4.4,4.4 44.8,4.4 44.8,0 0,0 0,75.1 62.5,75.1 62.5,17.7 	"/>
</g>
</svg>
