<?xml version="1.0" encoding="utf-8"?>
<!-- Generator: Adobe Illustrator 21.1.0, SVG Export Plug-In . SVG Version: 6.00 Build 0)  -->
<svg version="1.1" id="Capa_1" xmlns="http://www.w3.org/2000/svg" xmlns:xlink="http://www.w3.org/1999/xlink" x="0px" y="0px"
	 viewBox="0 0 84.1 62" style="enable-background:new 0 0 84.1 62;" xml:space="preserve">
<style type="text/css">
	.st0{fill:#1D1D26;}
	.st1{fill:#7CCF91;}
	.st2{opacity:0.25;}
	.st3{fill:none;stroke:#7CCF91;stroke-width:5;stroke-miterlimit:10;}
	.st4{fill:#55B085;}
	.st5{opacity:0.5;}
</style>
<g>
	<rect y="53.1" class="st1" width="4.4" height="4.4"/>
	<rect y="48.7" class="st1" width="4.4" height="4.4"/>
	<rect y="44.3" class="st1" width="4.4" height="4.4"/>
	<rect y="39.9" class="st1" width="4.4" height="4.4"/>
	<rect y="35.4" class="st1" width="4.4" height="4.4"/>
	<rect y="31" class="st1" width="4.4" height="4.4"/>
	<rect y="26.6" class="st1" width="4.4" height="4.4"/>
	<rect y="22.1" class="st1" width="4.4" height="4.4"/>
	<rect y="17.7" class="st1" width="4.4" height="4.4"/>
	<rect y="13.3" class="st1" width="4.4" height="4.4"/>
	<rect y="8.9" class="st1" width="4.4" height="4.4"/>
	<rect y="4.4" class="st1" width="4.4" height="4.4"/>
	<rect x="79.7" y="53.1" class="st1" width="4.4" height="4.4"/>
	<rect x="79.7" y="48.7" class="st1" width="4.4" height="4.4"/>
	<rect x="79.7" y="44.3" class="st1" width="4.4" height="4.4"/>
	<rect x="79.7" y="39.9" class="st1" width="4.4" height="4.4"/>
	<rect x="79.7" y="35.4" class="st1" width="4.4" height="4.4"/>
	<rect x="79.7" y="31" class="st1" width="4.4" height="4.4"/>
	<rect x="79.7" y="26.6" class="st1" width="4.4" height="4.4"/>
	<rect x="79.7" y="22.1" class="st1" width="4.4" height="4.4"/>
	<rect x="79.7" y="17.7" class="st1" width="4.4" height="4.4"/>
	<rect x="79.7" y="13.3" class="st1" width="4.4" height="4.4"/>
	<rect x="79.7" y="8.9" class="st1" width="4.4" height="4.4"/>
	<rect x="79.7" y="4.4" class="st1" width="4.4" height="4.4"/>
	
		<rect x="4.4" y="57.6" transform="matrix(-1.836970e-16 1 -1 -1.836970e-16 66.4258 53.1406)" class="st1" width="4.4" height="4.4"/>
	
		<rect x="8.9" y="57.6" transform="matrix(-1.836970e-16 1 -1 -1.836970e-16 70.8542 48.7122)" class="st1" width="4.4" height="4.4"/>
	
		<rect x="13.3" y="57.6" transform="matrix(-1.836970e-16 1 -1 -1.836970e-16 75.2826 44.2839)" class="st1" width="4.4" height="4.4"/>
	
		<rect x="17.7" y="57.6" transform="matrix(-1.836970e-16 1 -1 -1.836970e-16 79.7109 39.8555)" class="st1" width="4.4" height="4.4"/>
	
		<rect x="22.1" y="57.6" transform="matrix(-1.836970e-16 1 -1 -1.836970e-16 84.1393 35.4271)" class="st1" width="4.4" height="4.4"/>
	
		<rect x="26.6" y="57.6" transform="matrix(-1.836970e-16 1 -1 -1.836970e-16 88.5677 30.9987)" class="st1" width="4.4" height="4.4"/>
	
		<rect x="31" y="57.6" transform="matrix(-1.836970e-16 1 -1 -1.836970e-16 92.9961 26.5703)" class="st1" width="4.4" height="4.4"/>
	
		<rect x="35.4" y="57.6" transform="matrix(-1.836970e-16 1 -1 -1.836970e-16 97.4245 22.1419)" class="st1" width="4.4" height="4.4"/>
	
		<rect x="39.9" y="57.6" transform="matrix(-1.836970e-16 1 -1 -1.836970e-16 101.8529 17.7135)" class="st1" width="4.4" height="4.4"/>
	
		<rect x="44.3" y="57.6" transform="matrix(-1.836970e-16 1 -1 -1.836970e-16 106.2813 13.2852)" class="st1" width="4.4" height="4.4"/>
	
		<rect x="48.7" y="57.6" transform="matrix(-1.836970e-16 1 -1 -1.836970e-16 110.7096 8.8568)" class="st1" width="4.4" height="4.4"/>
	
		<rect x="53.1" y="57.6" transform="matrix(-1.836970e-16 1 -1 -1.836970e-16 115.138 4.4284)" class="st1" width="4.4" height="4.4"/>
	
		<rect x="26.6" y="57.6" transform="matrix(-1.836970e-16 1 -1 -1.836970e-16 88.5677 30.9987)" class="st1" width="4.4" height="4.4"/>
	
		<rect x="31" y="57.6" transform="matrix(-1.836970e-16 1 -1 -1.836970e-16 92.9961 26.5703)" class="st1" width="4.4" height="4.4"/>
	
		<rect x="35.4" y="57.6" transform="matrix(-1.836970e-16 1 -1 -1.836970e-16 97.4245 22.1419)" class="st1" width="4.4" height="4.4"/>
	
		<rect x="39.9" y="57.6" transform="matrix(-1.836970e-16 1 -1 -1.836970e-16 101.8529 17.7135)" class="st1" width="4.4" height="4.4"/>
	
		<rect x="44.3" y="57.6" transform="matrix(-1.836970e-16 1 -1 -1.836970e-16 106.2813 13.2852)" class="st1" width="4.4" height="4.4"/>
	
		<rect x="48.7" y="57.6" transform="matrix(-1.836970e-16 1 -1 -1.836970e-16 110.7096 8.8568)" class="st1" width="4.4" height="4.4"/>
	
		<rect x="53.1" y="57.6" transform="matrix(-1.836970e-16 1 -1 -1.836970e-16 115.138 4.4284)" class="st1" width="4.4" height="4.4"/>
	
		<rect x="57.6" y="57.6" transform="matrix(-1.836970e-16 1 -1 -1.836970e-16 119.5664 -1.804779e-12)" class="st1" width="4.4" height="4.4"/>
	
		<rect x="62" y="57.6" transform="matrix(-1.836970e-16 1 -1 -1.836970e-16 123.9948 -4.4284)" class="st1" width="4.4" height="4.4"/>
	
		<rect x="66.4" y="57.6" transform="matrix(-1.836970e-16 1 -1 -1.836970e-16 128.4232 -8.8568)" class="st1" width="4.4" height="4.4"/>
	
		<rect x="70.9" y="57.6" transform="matrix(-1.836970e-16 1 -1 -1.836970e-16 132.8516 -13.2852)" class="st1" width="4.4" height="4.4"/>
	
		<rect x="75.3" y="57.6" transform="matrix(-1.836970e-16 1 -1 -1.836970e-16 137.28 -17.7135)" class="st1" width="4.4" height="4.4"/>
	<rect x="4.4" y="0" transform="matrix(-1.836970e-16 1 -1 -1.836970e-16 8.8568 -4.4284)" class="st1" width="4.4" height="4.4"/>
	
		<rect x="4.4" y="4.4" transform="matrix(-1.836970e-16 1 -1 -1.836970e-16 13.2852 8.881784e-16)" class="st1" width="4.4" height="4.4"/>
	
		<rect x="8.9" y="8.9" transform="matrix(-1.836970e-16 1 -1 -1.836970e-16 22.1419 1.776357e-15)" class="st1" width="4.4" height="4.4"/>
	
		<rect x="13.3" y="13.3" transform="matrix(-1.836970e-16 1 -1 -1.836970e-16 30.9987 3.552714e-15)" class="st1" width="4.4" height="4.4"/>
	
		<rect x="17.7" y="17.7" transform="matrix(-1.836970e-16 1 -1 -1.836970e-16 39.8555 3.552714e-15)" class="st1" width="4.4" height="4.4"/>
	
		<rect x="22.1" y="22.1" transform="matrix(-1.836970e-16 1 -1 -1.836970e-16 48.7122 3.552714e-15)" class="st1" width="4.4" height="4.4"/>
	
		<rect x="26.6" y="26.6" transform="matrix(-1.836970e-16 1 -1 -1.836970e-16 57.569 3.552714e-15)" class="st1" width="4.4" height="4.4"/>
	
		<rect x="31" y="31" transform="matrix(-1.836970e-16 1 -1 -1.836970e-16 66.4258 7.105427e-15)" class="st1" width="4.4" height="4.4"/>
	
		<rect x="35.4" y="35.4" transform="matrix(-1.836970e-16 1 -1 -1.836970e-16 75.2826 7.105427e-15)" class="st1" width="4.4" height="4.4"/>
	
		<rect x="39.9" y="35.4" transform="matrix(-1.836970e-16 1 -1 -1.836970e-16 79.7109 -4.4284)" class="st1" width="4.4" height="4.4"/>
	
		<rect x="75.3" y="4.4" transform="matrix(-4.518360e-11 1 -1 -4.518360e-11 84.1393 -70.8542)" class="st1" width="4.4" height="4.4"/>
	
		<rect x="70.9" y="8.9" transform="matrix(-4.477237e-11 1 -1 -4.477237e-11 84.1393 -61.9974)" class="st1" width="4.4" height="4.4"/>
	
		<rect x="66.4" y="13.3" transform="matrix(-4.477237e-11 1 -1 -4.477237e-11 84.1393 -53.1406)" class="st1" width="4.4" height="4.4"/>
	
		<rect x="62" y="17.7" transform="matrix(-4.518360e-11 1 -1 -4.518360e-11 84.1393 -44.2839)" class="st1" width="4.4" height="4.4"/>
	
		<rect x="57.6" y="22.1" transform="matrix(-4.477237e-11 1 -1 -4.477237e-11 84.1393 -35.4271)" class="st1" width="4.4" height="4.4"/>
	
		<rect x="53.1" y="26.6" transform="matrix(-4.477237e-11 1 -1 -4.477237e-11 84.1393 -26.5703)" class="st1" width="4.4" height="4.4"/>
	
		<rect x="48.7" y="31" transform="matrix(-4.477237e-11 1 -1 -4.477237e-11 84.1393 -17.7135)" class="st1" width="4.4" height="4.4"/>
	
		<rect x="44.3" y="35.4" transform="matrix(-4.518360e-11 1 -1 -4.518360e-11 84.1393 -8.8568)" class="st1" width="4.4" height="4.4"/>
	<rect x="8.9" y="0" transform="matrix(-1.836970e-16 1 -1 -1.836970e-16 13.2852 -8.8568)" class="st1" width="4.4" height="4.4"/>
	
		<rect x="13.3" y="0" transform="matrix(-1.836970e-16 1 -1 -1.836970e-16 17.7135 -13.2852)" class="st1" width="4.4" height="4.4"/>
	
		<rect x="17.7" y="0" transform="matrix(-1.836970e-16 1 -1 -1.836970e-16 22.1419 -17.7135)" class="st1" width="4.4" height="4.4"/>
	
		<rect x="22.1" y="0" transform="matrix(-1.836970e-16 1 -1 -1.836970e-16 26.5703 -22.1419)" class="st1" width="4.4" height="4.4"/>
	
		<rect x="26.6" y="0" transform="matrix(-1.836970e-16 1 -1 -1.836970e-16 30.9987 -26.5703)" class="st1" width="4.4" height="4.4"/>
	<rect x="31" y="0" transform="matrix(-1.836970e-16 1 -1 -1.836970e-16 35.4271 -30.9987)" class="st1" width="4.4" height="4.4"/>
	
		<rect x="35.4" y="0" transform="matrix(-1.836970e-16 1 -1 -1.836970e-16 39.8555 -35.4271)" class="st1" width="4.4" height="4.4"/>
	
		<rect x="39.9" y="0" transform="matrix(-1.836970e-16 1 -1 -1.836970e-16 44.2839 -39.8555)" class="st1" width="4.4" height="4.4"/>
	
		<rect x="44.3" y="0" transform="matrix(-1.836970e-16 1 -1 -1.836970e-16 48.7122 -44.2839)" class="st1" width="4.4" height="4.4"/>
	
		<rect x="48.7" y="0" transform="matrix(-1.836970e-16 1 -1 -1.836970e-16 53.1406 -48.7122)" class="st1" width="4.4" height="4.4"/>
	
		<rect x="53.1" y="0" transform="matrix(-1.836970e-16 1 -1 -1.836970e-16 57.569 -53.1406)" class="st1" width="4.4" height="4.4"/>
	
		<rect x="26.6" y="0" transform="matrix(-1.836970e-16 1 -1 -1.836970e-16 30.9987 -26.5703)" class="st1" width="4.4" height="4.4"/>
	<rect x="31" y="0" transform="matrix(-1.836970e-16 1 -1 -1.836970e-16 35.4271 -30.9987)" class="st1" width="4.4" height="4.4"/>
	
		<rect x="35.4" y="0" transform="matrix(-1.836970e-16 1 -1 -1.836970e-16 39.8555 -35.4271)" class="st1" width="4.4" height="4.4"/>
	
		<rect x="39.9" y="0" transform="matrix(-1.836970e-16 1 -1 -1.836970e-16 44.2839 -39.8555)" class="st1" width="4.4" height="4.4"/>
	
		<rect x="44.3" y="0" transform="matrix(-1.836970e-16 1 -1 -1.836970e-16 48.7122 -44.2839)" class="st1" width="4.4" height="4.4"/>
	
		<rect x="48.7" y="0" transform="matrix(-1.836970e-16 1 -1 -1.836970e-16 53.1406 -48.7122)" class="st1" width="4.4" height="4.4"/>
	
		<rect x="53.1" y="0" transform="matrix(-1.836970e-16 1 -1 -1.836970e-16 57.569 -53.1406)" class="st1" width="4.4" height="4.4"/>
	
		<rect x="57.6" y="0" transform="matrix(-1.836970e-16 1 -1 -1.836970e-16 61.9974 -57.569)" class="st1" width="4.4" height="4.4"/>
	<rect x="62" y="0" transform="matrix(-1.836970e-16 1 -1 -1.836970e-16 66.4258 -61.9974)" class="st1" width="4.4" height="4.4"/>
	
		<rect x="66.4" y="0" transform="matrix(-1.836970e-16 1 -1 -1.836970e-16 70.8542 -66.4258)" class="st1" width="4.4" height="4.4"/>
	
		<rect x="70.9" y="0" transform="matrix(-1.836970e-16 1 -1 -1.836970e-16 75.2826 -70.8542)" class="st1" width="4.4" height="4.4"/>
	
		<rect x="75.3" y="0" transform="matrix(-1.836970e-16 1 -1 -1.836970e-16 79.7109 -75.2826)" class="st1" width="4.4" height="4.4"/>
</g>
</svg>
